<svg width="64" height="64" viewBox="0 0 64 64" fill="none" xmlns="http://www.w3.org/2000/svg">
<g clip-path="url(#clip0_332_9028)">
<mask id="mask0_332_9028" style="mask-type:luminance" maskUnits="userSpaceOnUse" x="0" y="0" width="64" height="64">
<path d="M0 3.8147e-06H64V64H0V3.8147e-06Z" fill="white"/>
</mask>
<g mask="url(#mask0_332_9028)">
<path d="M59.1861 50.6987V55.27H32V28.0838H58.2241C58.7555 28.0838 59.1861 28.5146 59.1861 29.046V46.4398" stroke="#000479" stroke-width="1.3" stroke-miterlimit="10" stroke-linecap="round" stroke-linejoin="round"/>
<path d="M45.5933 28.0839H42.3477V35.3031C42.3477 35.7306 42.7997 36.007 43.1802 35.812L45.3324 34.7087C45.4962 34.6247 45.6903 34.6247 45.854 34.7087L48.0063 35.812C48.3868 36.007 48.8388 35.7306 48.8388 35.3031V28.0839H45.5933Z" stroke="#000479" stroke-width="1.3" stroke-miterlimit="10" stroke-linecap="round" stroke-linejoin="round"/>
<path d="M50.1746 50.6989H41.0157C40.7116 50.6989 40.4648 50.4523 40.4648 50.148V46.2179C40.4648 45.9137 40.7116 45.667 41.0157 45.667H50.1746C50.4788 45.667 50.7255 45.9137 50.7255 46.2179V50.148C50.7255 50.4523 50.4788 50.6989 50.1746 50.6989Z" stroke="#000479" stroke-width="1.3" stroke-miterlimit="10" stroke-linecap="round" stroke-linejoin="round"/>
<path d="M18.4062 10.8184V28.0834H45.5925V1.85841C45.5925 1.32753 45.162 0.897157 44.6311 0.897157H19.3684C18.837 0.897157 18.4062 1.32791 18.4062 1.85928V6.55953" stroke="#000479" stroke-width="1.3" stroke-miterlimit="10" stroke-linecap="round" stroke-linejoin="round"/>
<path d="M31.9995 0.89714H28.7539V8.11651C28.7539 8.54401 29.206 8.82026 29.5865 8.62526L31.7388 7.52201C31.9025 7.43814 32.0965 7.43814 32.2604 7.52201L34.4127 8.62526C34.793 8.82026 35.2452 8.54401 35.2452 8.11651V0.89714H31.9995Z" stroke="#000479" stroke-width="1.3" stroke-miterlimit="10" stroke-linecap="round" stroke-linejoin="round"/>
<path d="M36.5807 23.5123H27.422C27.1177 23.5123 26.8711 23.2656 26.8711 22.9613V19.0313C26.8711 18.727 27.1177 18.4804 27.422 18.4804H36.5807C36.8851 18.4804 37.1316 18.727 37.1316 19.0313V22.9613C37.1316 23.2656 36.8851 23.5123 36.5807 23.5123Z" stroke="#000479" stroke-width="1.3" stroke-miterlimit="10" stroke-linecap="round" stroke-linejoin="round"/>
<path d="M31.9987 55.27H4.8125V29.046C4.8125 28.5146 5.24338 28.0839 5.77463 28.0839H31.9987V55.27Z" stroke="#000479" stroke-width="1.3" stroke-miterlimit="10" stroke-linecap="round" stroke-linejoin="round"/>
<path d="M18.4058 28.0839H15.1602V35.3031C15.1602 35.7306 15.6123 36.007 15.9928 35.812L18.145 34.7087C18.3087 34.6247 18.5028 34.6247 18.6665 34.7087L20.8188 35.812C21.1993 36.007 21.6513 35.7306 21.6513 35.3031V28.0839H18.4058Z" stroke="#000479" stroke-width="1.3" stroke-miterlimit="10" stroke-linecap="round" stroke-linejoin="round"/>
<path d="M22.987 50.6989H13.8282C13.524 50.6989 13.2773 50.4523 13.2773 50.148V46.2179C13.2773 45.9137 13.524 45.667 13.8282 45.667H22.987C23.2912 45.667 23.5378 45.9137 23.5378 46.2179V50.148C23.5378 50.4523 23.2912 50.6989 22.987 50.6989Z" stroke="#000479" stroke-width="1.3" stroke-miterlimit="10" stroke-linecap="round" stroke-linejoin="round"/>
<path d="M62.629 58.9151H1.37153C1.11666 58.9151 0.910156 58.7085 0.910156 58.4537V55.7319C0.910156 55.4771 1.11666 55.2705 1.37153 55.2705H62.629C62.8838 55.2705 63.0903 55.4771 63.0903 55.7319V58.4537C63.0903 58.7085 62.8838 58.9151 62.629 58.9151Z" stroke="#000479" stroke-width="1.3" stroke-miterlimit="10" stroke-linecap="round" stroke-linejoin="round"/>
<path d="M58.7583 63.1028H56.031C55.6277 63.1028 55.3008 62.7758 55.3008 62.3726V58.9151H59.4885V62.3726C59.4885 62.7758 59.1615 63.1028 58.7583 63.1028Z" stroke="#000479" stroke-width="1.3" stroke-miterlimit="10" stroke-linecap="round" stroke-linejoin="round"/>
<path d="M7.97312 63.1028H5.24575C4.8425 63.1028 4.51562 62.7758 4.51562 62.3726V58.9151H8.70337V62.3726C8.70337 62.7758 8.37637 63.1028 7.97312 63.1028Z" stroke="#000479" stroke-width="1.3" stroke-miterlimit="10" stroke-linecap="round" stroke-linejoin="round"/>
</g>
</g>
<defs>
<clipPath id="clip0_332_9028">
<rect width="64" height="64" fill="white"/>
</clipPath>
</defs>
</svg>
