<svg width="57" height="40" viewBox="0 0 57 40" fill="none" xmlns="http://www.w3.org/2000/svg">
<path d="M37.5068 5.45486L28.8594 0V39.6044H37.5068V5.45486Z" fill="url(#paint0_linear_804_10107)"/>
<path fill-rule="evenodd" clip-rule="evenodd" d="M27.1747 0V39.6044H18.5273V5.45486L27.1747 0ZM25.9394 2.25234V38.3544H19.7627V6.14865L25.9394 2.25234Z" fill="url(#paint1_linear_804_10107)"/>
<path d="M46.7725 19.8022L39.1641 14.7452V39.6044H46.7725V19.8022Z" fill="url(#paint2_linear_804_10107)"/>
<path fill-rule="evenodd" clip-rule="evenodd" d="M16.8742 14.7452V39.6044H9.26562V19.8022L16.8742 14.7452ZM15.6389 17.0618V38.3544H10.501V20.4768L15.6389 17.0618Z" fill="url(#paint3_linear_804_10107)"/>
<path d="M56.0381 33.2975L48.4297 28.6665V39.6044H56.0381V33.2975Z" fill="url(#paint4_linear_804_10107)"/>
<path fill-rule="evenodd" clip-rule="evenodd" d="M7.60855 28.6665V39.6044H0V33.2975L7.60855 28.6665ZM6.37323 30.8769V38.3544H1.23533V34.0042L6.37323 30.8769Z" fill="url(#paint5_linear_804_10107)"/>
<defs>
<linearGradient id="paint0_linear_804_10107" x1="24.255" y1="-5.76684e-08" x2="28.1356" y2="42.2098" gradientUnits="userSpaceOnUse">
<stop offset="0.0481439" stop-color="#000479"/>
<stop offset="0.410777" stop-color="#484A9F"/>
<stop offset="0.632304" stop-color="#ABBADE"/>
<stop offset="0.828431" stop-color="white"/>
<stop offset="0.841063" stop-color="#070A63"/>
<stop offset="0.970388" stop-color="#959CDD"/>
</linearGradient>
<linearGradient id="paint1_linear_804_10107" x1="24.2548" y1="-5.60207e-08" x2="28.1354" y2="42.2098" gradientUnits="userSpaceOnUse">
<stop offset="0.0481439" stop-color="#000479"/>
<stop offset="0.410777" stop-color="#484A9F"/>
<stop offset="0.632304" stop-color="#ABBADE"/>
<stop offset="0.828431" stop-color="white"/>
<stop offset="0.841063" stop-color="#070A63"/>
<stop offset="0.970388" stop-color="#959CDD"/>
</linearGradient>
<linearGradient id="paint2_linear_804_10107" x1="24.2557" y1="1.55874e-06" x2="28.1363" y2="42.2098" gradientUnits="userSpaceOnUse">
<stop offset="0.0481439" stop-color="#000479"/>
<stop offset="0.410777" stop-color="#484A9F"/>
<stop offset="0.632304" stop-color="#ABBADE"/>
<stop offset="0.828431" stop-color="white"/>
<stop offset="0.841063" stop-color="#070A63"/>
<stop offset="0.970388" stop-color="#959CDD"/>
</linearGradient>
<linearGradient id="paint3_linear_804_10107" x1="24.2581" y1="1.22241e-06" x2="28.1387" y2="42.2098" gradientUnits="userSpaceOnUse">
<stop offset="0.0481439" stop-color="#000479"/>
<stop offset="0.410777" stop-color="#484A9F"/>
<stop offset="0.632304" stop-color="#ABBADE"/>
<stop offset="0.828431" stop-color="white"/>
<stop offset="0.841063" stop-color="#070A63"/>
<stop offset="0.970388" stop-color="#959CDD"/>
</linearGradient>
<linearGradient id="paint4_linear_804_10107" x1="24.2563" y1="6.96156e-06" x2="28.1369" y2="42.2098" gradientUnits="userSpaceOnUse">
<stop offset="0.0481439" stop-color="#000479"/>
<stop offset="0.410777" stop-color="#484A9F"/>
<stop offset="0.632304" stop-color="#ABBADE"/>
<stop offset="0.828431" stop-color="white"/>
<stop offset="0.841063" stop-color="#070A63"/>
<stop offset="0.970388" stop-color="#959CDD"/>
</linearGradient>
<linearGradient id="paint5_linear_804_10107" x1="24.2575" y1="7.50016e-06" x2="28.1381" y2="42.2098" gradientUnits="userSpaceOnUse">
<stop offset="0.0481439" stop-color="#000479"/>
<stop offset="0.410777" stop-color="#484A9F"/>
<stop offset="0.632304" stop-color="#ABBADE"/>
<stop offset="0.828431" stop-color="white"/>
<stop offset="0.841063" stop-color="#070A63"/>
<stop offset="0.970388" stop-color="#959CDD"/>
</linearGradient>
</defs>
</svg>
