<svg width="40" height="24" viewBox="0 0 40 24" fill="none" xmlns="http://www.w3.org/2000/svg">
<path d="M13 10C11.9 10 11 10.9 11 12C11 13.1 11.9 14 13 14C14.1 14 15 13.1 15 12C15 10.9 14.1 10 13 10ZM27 10C25.9 10 25 10.9 25 12C25 13.1 25.9 14 27 14C28.1 14 29 13.1 29 12C29 10.9 28.1 10 27 10ZM20 10C18.9 10 18 10.9 18 12C18 13.1 18.9 14 20 14C21.1 14 22 13.1 22 12C22 10.9 21.1 10 20 10Z" fill="#1F1416"/>
</svg>
